info face="Purisa" size=32 bold=0 italic=0 charset="" unicode=0 stretchH=100 smooth=1 aa=1 padding=1,1,1,1 spacing=-2,-2
common lineHeight=56 base=36 scaleW=512 scaleH=512 pages=1 packed=0
page id=0 file="Purisa-32.png"
chars count=97
char id=0       x=354  y=37   width=11   height=24   xoffset=0    yoffset=13   xadvance=12   page=0    chnl=0 
char id=10      x=354  y=37   width=11   height=24   xoffset=0    yoffset=13   xadvance=12   page=0    chnl=0 
char id=32      x=0    y=0    width=0    height=0    xoffset=-1   yoffset=35   xadvance=21   page=0    chnl=0 
char id=33      x=504  y=37   width=7    height=20   xoffset=5    yoffset=17   xadvance=16   page=0    chnl=0 
char id=34      x=401  y=65   width=8    height=11   xoffset=5    yoffset=11   xadvance=18   page=0    chnl=0 
char id=35      x=240  y=65   width=18   height=21   xoffset=1    yoffset=16   xadvance=21   page=0    chnl=0 
char id=36      x=153  y=0    width=13   height=32   xoffset=3    yoffset=10   xadvance=20   page=0    chnl=0 
char id=37      x=131  y=65   width=21   height=22   xoffset=1    yoffset=17   xadvance=24   page=0    chnl=0 
char id=38      x=386  y=37   width=19   height=24   xoffset=3    yoffset=14   xadvance=24   page=0    chnl=0 
char id=39      x=420  y=65   width=7    height=10   xoffset=7    yoffset=12   xadvance=20   page=0    chnl=0 
char id=40      x=69   y=0    width=12   height=35   xoffset=5    yoffset=7    xadvance=21   page=0    chnl=0 
char id=41      x=81   y=0    width=10   height=35   xoffset=5    yoffset=7    xadvance=20   page=0    chnl=0 
char id=42      x=258  y=65   width=19   height=21   xoffset=3    yoffset=14   xadvance=25   page=0    chnl=0 
char id=43      x=368  y=65   width=19   height=20   xoffset=2    yoffset=16   xadvance=23   page=0    chnl=0 
char id=44      x=392  y=65   width=9    height=14   xoffset=4    yoffset=28   xadvance=16   page=0    chnl=0 
char id=45      x=471  y=65   width=25   height=6    xoffset=3    yoffset=20   xadvance=30   page=0    chnl=0 
char id=46      x=409  y=65   width=11   height=11   xoffset=3    yoffset=29   xadvance=17   page=0    chnl=0 
char id=47      x=32   y=0    width=19   height=36   xoffset=3    yoffset=6    xadvance=25   page=0    chnl=0 
char id=48      x=38   y=65   width=16   height=23   xoffset=2    yoffset=14   xadvance=19   page=0    chnl=0 
char id=49      x=427  y=37   width=10   height=23   xoffset=0    yoffset=14   xadvance=11   page=0    chnl=0 
char id=50      x=437  y=37   width=22   height=23   xoffset=1    yoffset=15   xadvance=24   page=0    chnl=0 
char id=51      x=459  y=37   width=17   height=23   xoffset=1    yoffset=14   xadvance=19   page=0    chnl=0 
char id=52      x=476  y=37   width=16   height=23   xoffset=1    yoffset=14   xadvance=18   page=0    chnl=0 
char id=53      x=116  y=65   width=15   height=22   xoffset=1    yoffset=15   xadvance=16   page=0    chnl=0 
char id=54      x=492  y=37   width=12   height=23   xoffset=1    yoffset=14   xadvance=14   page=0    chnl=0 
char id=55      x=0    y=65   width=11   height=23   xoffset=2    yoffset=14   xadvance=14   page=0    chnl=0 
char id=56      x=11   y=65   width=14   height=23   xoffset=2    yoffset=14   xadvance=17   page=0    chnl=0 
char id=57      x=25   y=65   width=13   height=23   xoffset=1    yoffset=14   xadvance=15   page=0    chnl=0 
char id=58      x=387  y=65   width=5    height=19   xoffset=4    yoffset=18   xadvance=13   page=0    chnl=0 
char id=59      x=362  y=65   width=6    height=20   xoffset=3    yoffset=20   xadvance=12   page=0    chnl=0 
char id=60      x=372  y=37   width=14   height=24   xoffset=1    yoffset=13   xadvance=17   page=0    chnl=0 
char id=61      x=438  y=65   width=11   height=9    xoffset=2    yoffset=21   xadvance=16   page=0    chnl=0 
char id=62      x=54   y=65   width=13   height=23   xoffset=3    yoffset=15   xadvance=18   page=0    chnl=0 
char id=63      x=360  y=0    width=13   height=30   xoffset=4    yoffset=7    xadvance=21   page=0    chnl=0 
char id=64      x=67   y=65   width=19   height=23   xoffset=2    yoffset=14   xadvance=24   page=0    chnl=0 
char id=65      x=0    y=37   width=21   height=28   xoffset=1    yoffset=10   xadvance=24   page=0    chnl=0 
char id=66      x=21   y=37   width=18   height=28   xoffset=1    yoffset=9    xadvance=21   page=0    chnl=0 
char id=67      x=39   y=37   width=19   height=28   xoffset=3    yoffset=9    xadvance=23   page=0    chnl=0 
char id=68      x=166  y=0    width=25   height=31   xoffset=1    yoffset=8    xadvance=27   page=0    chnl=0 
char id=69      x=378  y=0    width=17   height=29   xoffset=1    yoffset=8    xadvance=18   page=0    chnl=0 
char id=70      x=58   y=37   width=15   height=28   xoffset=3    yoffset=9    xadvance=19   page=0    chnl=0 
char id=71      x=156  y=37   width=19   height=27   xoffset=2    yoffset=10   xadvance=23   page=0    chnl=0 
char id=72      x=112  y=0    width=18   height=32   xoffset=2    yoffset=7    xadvance=21   page=0    chnl=0 
char id=73      x=175  y=37   width=14   height=27   xoffset=2    yoffset=10   xadvance=18   page=0    chnl=0 
char id=74      x=272  y=0    width=21   height=30   xoffset=1    yoffset=9    xadvance=22   page=0    chnl=0 
char id=75      x=130  y=0    width=23   height=32   xoffset=2    yoffset=7    xadvance=25   page=0    chnl=0 
char id=76      x=73   y=37   width=20   height=28   xoffset=3    yoffset=9    xadvance=23   page=0    chnl=0 
char id=77      x=191  y=0    width=21   height=31   xoffset=1    yoffset=8    xadvance=23   page=0    chnl=0 
char id=78      x=395  y=0    width=24   height=29   xoffset=2    yoffset=8    xadvance=27   page=0    chnl=0 
char id=79      x=189  y=37   width=20   height=27   xoffset=1    yoffset=10   xadvance=21   page=0    chnl=0 
char id=80      x=212  y=0    width=20   height=31   xoffset=0    yoffset=8    xadvance=21   page=0    chnl=0 
char id=81      x=93   y=37   width=24   height=28   xoffset=1    yoffset=10   xadvance=25   page=0    chnl=0 
char id=82      x=209  y=37   width=19   height=27   xoffset=1    yoffset=10   xadvance=21   page=0    chnl=0 
char id=83      x=270  y=37   width=17   height=26   xoffset=1    yoffset=11   xadvance=19   page=0    chnl=0 
char id=84      x=419  y=0    width=26   height=29   xoffset=0    yoffset=10   xadvance=26   page=0    chnl=0 
char id=85      x=228  y=37   width=19   height=27   xoffset=2    yoffset=10   xadvance=21   page=0    chnl=0 
char id=86      x=247  y=37   width=23   height=27   xoffset=1    yoffset=10   xadvance=24   page=0    chnl=0 
char id=87      x=293  y=0    width=27   height=30   xoffset=1    yoffset=8    xadvance=28   page=0    chnl=0 
char id=88      x=117  y=37   width=24   height=28   xoffset=0    yoffset=10   xadvance=24   page=0    chnl=0 
char id=89      x=232  y=0    width=22   height=31   xoffset=1    yoffset=9    xadvance=23   page=0    chnl=0 
char id=90      x=304  y=37   width=30   height=25   xoffset=0    yoffset=12   xadvance=30   page=0    chnl=0 
char id=91      x=499  y=0    width=12   height=27   xoffset=2    yoffset=12   xadvance=16   page=0    chnl=0 
char id=92      x=334  y=37   width=20   height=25   xoffset=1    yoffset=13   xadvance=23   page=0    chnl=0 
char id=93      x=287  y=37   width=10   height=26   xoffset=3    yoffset=12   xadvance=17   page=0    chnl=0 
char id=94      x=427  y=65   width=11   height=10   xoffset=1    yoffset=8    xadvance=14   page=0    chnl=0 
char id=95      x=0    y=88   width=19   height=5    xoffset=0    yoffset=33   xadvance=19   page=0    chnl=0 
char id=96      x=449  y=65   width=7    height=7    xoffset=3    yoffset=12   xadvance=14   page=0    chnl=0 
char id=97      x=277  y=65   width=15   height=20   xoffset=2    yoffset=17   xadvance=18   page=0    chnl=0 
char id=98      x=254  y=0    width=18   height=31   xoffset=2    yoffset=6    xadvance=21   page=0    chnl=0 
char id=99      x=292  y=65   width=17   height=20   xoffset=1    yoffset=17   xadvance=18   page=0    chnl=0 
char id=100     x=0    y=0    width=21   height=37   xoffset=1    yoffset=2    xadvance=23   page=0    chnl=0 
char id=101     x=309  y=65   width=19   height=20   xoffset=1    yoffset=17   xadvance=20   page=0    chnl=0 
char id=102     x=51   y=0    width=18   height=35   xoffset=1    yoffset=2    xadvance=20   page=0    chnl=0 
char id=103     x=320  y=0    width=21   height=30   xoffset=1    yoffset=15   xadvance=22   page=0    chnl=0 
char id=104     x=341  y=0    width=15   height=30   xoffset=1    yoffset=7    xadvance=17   page=0    chnl=0 
char id=105     x=356  y=0    width=4    height=30   xoffset=2    yoffset=7    xadvance=8    page=0    chnl=0 
char id=106     x=21   y=0    width=11   height=37   xoffset=1    yoffset=8    xadvance=14   page=0    chnl=0 
char id=107     x=445  y=0    width=15   height=29   xoffset=1    yoffset=8    xadvance=17   page=0    chnl=0 
char id=108     x=91   y=0    width=6    height=34   xoffset=2    yoffset=3    xadvance=10   page=0    chnl=0 
char id=109     x=405  y=37   width=22   height=23   xoffset=3    yoffset=17   xadvance=28   page=0    chnl=0 
char id=110     x=86   y=65   width=16   height=22   xoffset=3    yoffset=16   xadvance=21   page=0    chnl=0 
char id=111     x=152  y=65   width=19   height=21   xoffset=1    yoffset=16   xadvance=21   page=0    chnl=0 
char id=112     x=460  y=0    width=19   height=29   xoffset=1    yoffset=16   xadvance=21   page=0    chnl=0 
char id=113     x=479  y=0    width=20   height=29   xoffset=0    yoffset=16   xadvance=21   page=0    chnl=0 
char id=114     x=171  y=65   width=14   height=21   xoffset=2    yoffset=17   xadvance=17   page=0    chnl=0 
char id=115     x=102  y=65   width=14   height=22   xoffset=1    yoffset=17   xadvance=16   page=0    chnl=0 
char id=116     x=97   y=0    width=15   height=34   xoffset=0    yoffset=4    xadvance=16   page=0    chnl=0 
char id=117     x=185  y=65   width=17   height=21   xoffset=1    yoffset=17   xadvance=19   page=0    chnl=0 
char id=118     x=202  y=65   width=16   height=21   xoffset=2    yoffset=17   xadvance=19   page=0    chnl=0 
char id=119     x=218  y=65   width=22   height=21   xoffset=0    yoffset=17   xadvance=22   page=0    chnl=0 
char id=120     x=328  y=65   width=17   height=20   xoffset=1    yoffset=17   xadvance=19   page=0    chnl=0 
char id=121     x=141  y=37   width=15   height=28   xoffset=1    yoffset=17   xadvance=17   page=0    chnl=0 
char id=122     x=345  y=65   width=17   height=20   xoffset=0    yoffset=17   xadvance=17   page=0    chnl=0 
char id=123     x=365  y=37   width=7    height=24   xoffset=2    yoffset=14   xadvance=10   page=0    chnl=0 
char id=124     x=373  y=0    width=5    height=30   xoffset=3    yoffset=11   xadvance=12   page=0    chnl=0 
char id=125     x=297  y=37   width=7    height=26   xoffset=2    yoffset=13   xadvance=10   page=0    chnl=0 
char id=126     x=456  y=65   width=15   height=7    xoffset=3    yoffset=10   xadvance=20   page=0    chnl=0 
kernings count=0
